[
  {
  "reunionContexte": {
    "agentId": "12345",
    "dateReunion": "20210922",
    "heureDebutReunion": "15.00"
  },
    "action": {
    "agentCreateurId": null,
    "dateCreation": "2021-09-22T10:15:00+02:00"
  },
  "partenaires": [
    {
      "id": "00000000120639",
      "libelle": null,
      "idPartenaireVisio": "40502490600001"
    },
    {
      "id": "00000000120639",
      "libelle": null,
      "idPartenaireVisio": "40502490600001"
    }
  ],
  "experts": [
    {
      "mail": "expert@cats.com"
    },
    {
      "mail": "expertvisio@cats.com"
    }
  ],
  "dateDebut": "2021-09-22T10:15:00+02:00",
  "dateFin": "2021-09-23T10:15:00+02:00",
  "typeReunion": "RENDEZ-VOUS",
  "theme": {
    "id": "BL",
    "libelle": "Comptes et cartes"
  },
  "objet": {
    "id": "CD",
    "libelle": "Faire des opérations à distance"
  },
  "canalInteraction": {
    "canal": "AGENCE",
    "agence": {
      "id": "00173"
    },
    "telephone": "0634526589",
    "urlVisio": "string"
  },
  "piecesAFournir": [
    {
      "id": "1",
      "libelle": "test",
      "ordre": 0
    },
    {
      "id": "2",
      "libelle": "test",
      "ordre": 1
    }
  ],
  "commentaire": "commentaire",
  "plageProtegee": true
},
{
  "reunionContexte": {
    "agentId": "12346",
    "dateReunion": "20210922",
    "heureDebutReunion": "15.00"
  },
  "action": {
    "agentCreateurId": "12345",
    "dateCreation": "2021-09-22T10:15:00+02:00"
},
  "partenaires": [
    {
      "id": null,
      "libelle": "Mme Joel EUVRARD",
      "idPartenaireVisio": null
    },
    {
      "id": null,
      "libelle": "Mme Joel EUVRARD",
      "idPartenaireVisio": null
    }
  ],
  "Experts": [
    {
      "mail": "expert@cats.com"
    }
  ],
  "dateDebut": "2021-09-22T10:15:00+02:00",
  "dateFin": "2021-09-23T10:15:00+02:00",
  "typeReunion": "RENDEZ-VOUS",
  "theme": {
    "id": "BL",
    "libelle": "Comptes et cartes"
  },
  "objet": {
    "id": "CD",
    "libelle": "Faire des opérations à distance"
  },
  "canalInteraction": {
    "canal": "AGENCE",
    "agence": {
      "id": "00950"
    },
    "telephone": "0634526589",
    "urlVisio": "string"
  },
  "piecesAFournir": [
    {
      "id": "1",
      "libelle": "test",
      "ordre": 0
    }
  ],
  "commentaire": "commentaire",
  "plageProtegee": true
},
{
  "id": null,
  "action": null,
  "partenaires": null,
  "dateDebut": "2021-09-22T10:15:00+02:00",
  "dateFin": "2021-09-23T10:15:00+02:00",
  "typeReunion": "FERIE",
  "theme": null,
  "objet": null,
  "canalInteraction": null,
  "piecesAFournir": null,
  "commentaire": "commentaire",
  "plageProtegee": false
},
{
  "id": "d5f26edd-e9b2-45ca-b4b3-fd641950caf0",
  "action": {
    "agentCreateurId": "12345",
    "dateCreation": "2021-09-22T10:15:00+02:00"
  },
  "partenaires": null,
  "dateDebut": "2021-09-22T10:15:00+02:00",
  "dateFin": "2021-09-23T10:15:00+02:00",
  "typeReunion": "ACTIVITE",
  "theme": {
    "id": "BL",
    "libelle": "Comptes et cartes"
  },
  "objet": null,
  "canalInteraction": {
    "canal": "NULL",
    "agence": {
      "id": null
    },
    "telephone": null,
    "urlVisio": null
  },
  "piecesAFournir": null,
  "commentaire": "commentaire",
  "plageProtegee": true
},
  {
    "reunionContexte": {
      "agentId": "00597",
      "dateReunion": "20210922",
      "heureDebutReunion": "15.00"
    },
    "action": {
      "agentCreateurId": "00597",
      "dateCreation": "2021-09-22T10:15:00+02:00"
    },
    "partenaires": [
      {
        "id": "00000000120639",
        "libelle": null,
        "idPartenaireVisio": "40502490600001"
      },
      {
        "id": "00000000120639",
        "libelle": null,
        "idPartenaireVisio": "40502490600001"
      }
    ],
    "experts": [
      {
        "mail": "expert@cats.com"
      },
      {
        "mail": "expertvisio@cats.com"
      }
    ],
    "dateDebut": "2021-09-22T10:15:00+02:00",
    "dateFin": "2021-09-23T10:15:00+02:00",
    "typeReunion": "RENDEZ-VOUS",
    "theme": {
      "id": "BL",
      "libelle": "Comptes et cartes"
    },
    "objet": {
      "id": "CD",
      "libelle": "Faire des opérations à distance"
    },
    "canalInteraction": {
      "canal": "AGENCE",
      "agence": {
        "id": "00173"
      },
      "telephone": "0634526589",
      "urlVisio": "string"
    },
    "piecesAFournir": [
      {
        "id": "1",
        "libelle": "test",
        "ordre": 0
      },
      {
        "id": "2",
        "libelle": "test",
        "ordre": 1
      }
    ],
    "commentaire": "commentaire",
    "plageProtegee": true
  }]