[
  {
    "codeActivite": "ABSENCE CONG",
    "libelleActivite": "ABSENCES, CONGES",
    "couleurActivite": "4FC068"
  },
  {
    "codeActivite": "ACCUEIL",
    "libelleActivite": "ACCUEIL",
    "couleurActivite": "1B4550"
  },
  {
    "codeActivite": "GEST ADM",
    "libelleActivite": "GESTION ADMINISTRATIVE",
    "couleurActivite": "F2CD31"
  },
  {
    "codeActivite": "AUTRES",
    "libelleActivite": "AUTRES",
    "couleurActivite": "4FC068"
  },
  {
    "codeActivite": "SAV CLI",
    "libelleActivite": "SAV CLIENTELE",
    "couleurActivite": "F2CD31"
  },
  {
    "codeActivite": "CAIS/GES VAL",
    "libelleActivite": "CAISSE/GESTION VALEURS",
    "couleurActivite": "F28DA6"
  },
  {
    "codeActivite": "ENTR.CLI",
    "libelleActivite": "ENTRETIEN CLIENT",
    "couleurActivite": "F2CD31"
  },
  {
    "codeActivite": "CAISSE LOCAL",
    "libelleActivite": "CAISSE LOCALE",
    "couleurActivite": "74574A"
  },
  {
    "codeActivite": "CONGE DEMAND",
    "libelleActivite": "CONGE EN ATTENTE DE VALIDATION",
    "couleurActivite": "4FC068"
  },
  {
    "codeActivite": "COM",
    "libelleActivite": "COMMERCIAL",
    "couleurActivite": "74574A"
  },
  {
    "codeActivite": "CONQUETE",
    "libelleActivite": "CONQUETE",
    "couleurActivite": "74574A"
  },
  {
    "codeActivite": "CONTROLES",
    "libelleActivite": "CONTROLES",
    "couleurActivite": "74574A"
  },
  {
    "codeActivite": "ENT IND/MONI",
    "libelleActivite": "ENTRETIEN IND/MONITORAT",
    "couleurActivite": "7164BF"
  },
  {
    "codeActivite": "EXCEPTION",
    "libelleActivite": "EXCEPTION PLANNING",
    "couleurActivite": "FF9A18"
  },
  {
    "codeActivite": "ACCRO FLUX/1",
    "libelleActivite": "ACCROCHE FLUX/1ER CONSEIL",
    "couleurActivite": "D4414A"
  },
  {
    "codeActivite": "FORMATION",
    "libelleActivite": "FORMATION",
    "couleurActivite": "498EB8"
  },
  {
    "codeActivite": "GEST.RISQUES",
    "libelleActivite": "GESTION DES RISQUES",
    "couleurActivite": "F2CD31"
  },
  {
    "codeActivite": "ACCUE GUICHE",
    "libelleActivite": "ACCUEIL GUICHET",
    "couleurActivite": "1B4550"
  },
  {
    "codeActivite": "COMP HABITAT",
    "libelleActivite": "COMPETENCE HABITAT",
    "couleurActivite": "D16C29"
  },
  {
    "codeActivite": "INFO/REUNION",
    "libelleActivite": "INFORMATION / REUNIONS",
    "couleurActivite": "498EB8"
  },
  {
    "codeActivite": "LIM HORAIRES",
    "libelleActivite": "LIMITES HORAIRES",
    "couleurActivite": "8E93A8"
  },
  {
    "codeActivite": "PILOTAGE",
    "libelleActivite": "PILOTAGE",
    "couleurActivite": "F2CD31"
  },
  {
    "codeActivite": "PERMANENCE",
    "libelleActivite": "PERMANENCE",
    "couleurActivite": "007461"
  },
  {
    "codeActivite": "TELEPHONE",
    "libelleActivite": "TELEPHONE,PRISE DE RDV",
    "couleurActivite": "8E93A8"
  },
  {
    "codeActivite": "RELATION CLT",
    "libelleActivite": "RELATION CLIENT",
    "couleurActivite": "64AA7C"
  },
  {
    "codeActivite": "ENTREE REL.",
    "libelleActivite": "ENTREE EN RELATION",
    "couleurActivite": "F2CD31"
  },
  {
    "codeActivite": "RISQUE",
    "libelleActivite": "RISQUE",
    "couleurActivite": "74574A"
  },
  {
    "codeActivite": "REL CLT MULT",
    "libelleActivite": "RELATION CLIENT MULTICANAL",
    "couleurActivite": "1B4550"
  },
  {
    "codeActivite": "RESERV SALON",
    "libelleActivite": "RESERVATION SALON DE RECEPTION",
    "couleurActivite": "449A8C"
  },
  {
    "codeActivite": "SAV",
    "libelleActivite": "SERVICE APRES-VENTE",
    "couleurActivite": "9F2757"
  },
  {
    "codeActivite": "SIMULATION",
    "libelleActivite": "SIMULATION DEVIS PROPOSITIONS",
    "couleurActivite": "2860D7"
  },
  {
    "codeActivite": "CONGES",
    "libelleActivite": "CONGES,ABSENCES",
    "couleurActivite": "4FC068"
  },
  {
    "codeActivite": "GEST.VAL.",
    "libelleActivite": "GESTION VALEURS",
    "couleurActivite": "F28DA6"
  },
  {
    "codeActivite": "VENTE",
    "libelleActivite": "VENTE",
    "couleurActivite": "4293A5"
  }
]