[
  {
  "regional_bank_id": "88200",
  "number": "00597",
  "id": "00597",
  "title": "MR",
  "first_name": "Jean",
  "last_name": "DUPONT",
  "fax_number": "",
  "phone_number": "",
  "mobile_phone_number": "",
  "email": "REBUS-HOMOL@HOM.CA-TS.FR",
  "distribution_entities": [
    {
      "branch_id": "506",
      "label": "PARIS HALLES",
      "type": "6",
      "type_name": "POINT DE VENTE",
      "job": {
        "id": "1124",
        "short_label": "DIR.AGENCE 00498",
        "long_label": "DIR.AGENCE STE FOY LES LYON"
      },
      "employee_functions": [
        {
          "id": "170",
          "id_emaco": "ATC",
          "name": "ATTACHE DE CLIENTELE ",
          "working_hours": [
            {
              "day": "LUNDI",
              "starting_hour": "07:00:00",
              "ending_hour": "12:00:00"
            }
          ]
        },
        {
          "id_emaco": "ATC1",
          "name": "ATTACHE DE CLIENTELE ",
          "working_hours": [
            {
              "day": "LUNDI",
              "starting_hour": "12:00:00",
              "ending_hour": "22:00:00"
            }
          ]
        }
      ]
    },
    {
      "branch_id": "507",
      "label": "PARIS",
      "type": "6",
      "type_name": "POINT DE VENTE",
      "job": {
        "id": "1120",
        "short_label": "DIR.AGENCE 00498",
        "long_label": "DIR.AGENCE STE FOY LES LYON"
      },
      "employee_functions": [
        {
          "id": "170",
          "id_emaco": "ATC",
          "name": "ATTACHE DE CLIENTELE ",
          "working_hours": [
            {
              "day": "LUNDI",
              "starting_hour": "07:00:00",
              "ending_hour": "12:00:00"
            }
          ]
        }
      ]
    }

  ]
},
  {
    "regional_bank_id": "88200",
    "number": "17154",
    "id": "17154",
    "title": "MR",
    "first_name": "URSULINE",
    "last_name": "BOGAERT",
    "fax_number": "",
    "phone_number": "",
    "mobile_phone_number": "",
    "email": "REBUS-HOMOL@HOM.CA-TS.FR",
    "distribution_entities": [
      {
        "branch_id": "506",
        "label": "PARIS HALLES",
        "type": "6",
        "type_name": "POINT DE VENTE",
        "job": {
          "id": "1124",
          "short_label": "DIR.AGENCE 00498",
          "long_label": "DIR.AGENCE STE FOY LES LYON"
        },
        "employee_functions": [
          {
            "id": "170",
            "id_emaco": "ATC",
            "name": "ATTACHE DE CLIENTELE ",
            "working_hours": [
              {
                "day": "LUNDI",
                "starting_hour": "07:00:00",
                "ending_hour": "12:00:00"
              }
            ]
          },
          {
            "id_emaco": "ATC1",
            "name": "ATTACHE DE CLIENTELE ",
            "working_hours": [
              {
                "day": "LUNDI",
                "starting_hour": "12:00:00",
                "ending_hour": "22:00:00"
              }
            ]
          }
        ]
      },
      {
        "branch_id": "507",
        "label": "PARIS",
        "type": "6",
        "type_name": "POINT DE VENTE",
        "job": {
          "id": "1120",
          "short_label": "DIR.AGENCE 00498",
          "long_label": "DIR.AGENCE STE FOY LES LYON"
        },
        "employee_functions": [
          {
            "id": "170",
            "id_emaco": "ATC",
            "name": "ATTACHE DE CLIENTELE ",
            "working_hours": [
              {
                "day": "LUNDI",
                "starting_hour": "07:00:00",
                "ending_hour": "12:00:00"
              }
            ]
          }
        ]
      }

    ]
  }
]