{
  "id": "878000034806",
  "short_label": "VAL THOIRY",
  "long_label": "VAL THOIRY",
  "email_address": "test",
  "phone_number": "0450200718",
  "city": "THOIRY",
  "zip_code": "1710",
  "country": "FR",
  "postal_address": {
    "postal_address_line1": "CREDIT AGRICOLE",
    "postal_address_line2": "VAL THOIRY",
    "postal_address_line3": "",
    "postal_address_line4": "CENTRE COMMERCIAL",
    "postal_address_line5": "",
    "postal_address_line6": "01710 THOIRY"
  },
  "manager": {
    "first_name": "PIERRE",
    "last_name": "JOZEFCZYK"
  },
  "schedule": [
    {
      "day": "LUNDI",
      "holiday": false,
      "opening_hours": [
        {
          "from": "1000",
          "to": "1900"
        },
        {
          "from": "0",
          "to": "0"
        }
      ]
    },
    {
      "day": "MARDI",
      "holiday": false,
      "opening_hours": [
        {
          "from": "1000",
          "to": "1900"
        },
        {
          "from": "0",
          "to": "0"
        }
      ]
    },
    {
      "day": "MERCREDI",
      "holiday": false,
      "opening_hours": [
        {
          "from": "1000",
          "to": "1900"
        },
        {
          "from": "0",
          "to": "0"
        }
      ]
    },
    {
      "day": "JEUDI",
      "holiday": false,
      "opening_hours": [
        {
          "from": "1000",
          "to": "1900"
        },
        {
          "from": "0",
          "to": "0"
        }
      ]
    },
    {
      "day": "VENDREDI",
      "holiday": false,
      "opening_hours": [
        {
          "from": "1000",
          "to": "1900"
        },
        {
          "from": "0",
          "to": "0"
        }
      ]
    },
    {
      "day": "SAMEDI",
      "holiday": false,
      "opening_hours": [
        {
          "from": "900",
          "to": "1800"
        },
        {
          "from": "0",
          "to": "0"
        }
      ]
    }
  ]
}